<svg width="130" height="36" viewBox="0 0 130 30" fill="none" xmlns="http://www.w3.org/2000/svg">
    <path d="M9.61141 22.4239L23.2974 7.44931H10.08V1.23171H33.7506V6.57615L20.0603 21.5507H33.7462V27.7683H9.61141V22.4239ZM4.46507 0C2.00039 0 0 1.94458 0 4.34051C0 6.73644 2.00039 8.68102 4.46507 8.68102C6.92976 8.68102 8.93015 6.73644 8.93015 4.34051C8.93015 1.94458 6.9341 0 4.46507 0ZM39.3569 20.3148C36.8922 20.3148 34.8918 22.2593 34.8918 24.6553C34.8918 27.0512 36.8922 28.9958 39.3569 28.9958C41.8216 28.9958 43.8263 27.0554 43.8263 24.6595C43.8263 22.2636 41.8259 20.3148 39.3569 20.3148Z"
          fill="#ED1B23"/>
    <path d="M55.2038 5.77451H56.4535V7.10745H55.2038V5.77451ZM55.3253 9.75647H56.3277V19.9139H55.3253V9.75647ZM59.5691 19.3613L67.1107 10.6381H59.8555V9.76069H68.6034V10.3175L61.0618 19.0407H68.6034V19.9181H59.5647V19.3613H59.5691ZM71.6625 5.77451H72.9122V7.10745H71.6625V5.77451ZM71.784 9.75647H72.7864V19.9139H71.784V9.75647ZM75.8412 18.6442L76.4357 17.868C77.5856 18.7243 78.8526 19.201 80.1848 19.201C81.5994 19.201 82.7059 18.4459 82.7059 17.2311C82.7059 16.0373 81.3954 15.5987 79.9374 15.1979C78.2365 14.7213 76.3532 14.2235 76.3532 12.3675C76.3532 10.7351 77.7678 9.55822 79.7943 9.55822C81.044 9.55822 82.4585 9.99691 83.5043 10.676L82.9706 11.4944C82.0073 10.8785 80.8617 10.4778 79.7509 10.4778C78.3189 10.4778 77.373 11.2328 77.373 12.2916C77.373 13.4263 78.7875 13.8439 80.2846 14.2657C81.9639 14.7255 83.7256 15.3203 83.7256 17.1552C83.7256 18.969 82.1288 20.1248 80.1197 20.1248C78.6096 20.1163 76.9477 19.5173 75.8412 18.6442ZM86.9323 5.37378H87.9347V11.6504C88.6333 10.4567 89.8005 9.52025 91.7055 9.52025C94.348 9.52025 95.8841 11.275 95.8841 13.7047V19.9181H94.8818V13.8819C94.8818 11.7896 93.6711 10.4145 91.5623 10.4145C89.5141 10.4145 87.9347 11.9288 87.9347 14.0379V19.9139H86.9323V5.37378ZM98.7784 14.8394C98.7784 11.9921 101.052 9.52025 104.168 9.52025C107.262 9.52025 109.518 11.9499 109.518 14.8394C109.518 17.6867 107.244 20.1585 104.129 20.1585C101.03 20.1543 98.7784 17.7246 98.7784 14.8394ZM108.429 14.8394C108.429 12.3886 106.481 10.4356 104.124 10.4356C101.768 10.4356 99.8632 12.4055 99.8632 14.8394C99.8632 17.2901 101.751 19.2432 104.168 19.2432C106.485 19.2389 108.429 17.2691 108.429 14.8394ZM112.612 9.75647H113.614V12.0259C114.517 10.6929 115.849 9.51603 117.919 9.51603C120.44 9.51603 123 11.4901 123 14.8352C123 18.1422 120.44 20.1543 117.919 20.1543C115.827 20.1543 114.478 18.9985 113.614 17.7246V23.1028H112.612V9.75647ZM121.915 14.8394C121.915 12.1693 120.01 10.4567 117.815 10.4567C115.641 10.4567 113.554 12.2283 113.554 14.8605C113.554 17.4715 115.645 19.2221 117.815 19.2221C120.093 19.2179 121.915 17.6065 121.915 14.8394Z"
          fill="#fff"/>
</svg>
